<?xml version="1.0" encoding="UTF-8"?>
<svg width="30px" height="30px" viewBox="0 0 30 30" version="1.1" xmlns="http://www.w3.org/2000/svg" xmlns:xlink="http://www.w3.org/1999/xlink">
    <!-- Generator: Sketch 46.2 (44496) - http://www.bohemiancoding.com/sketch -->
    <title>Page 1</title>
    <desc>Created with Sketch.</desc>
    <defs>
        <polygon id="path-1" points="16.4856531 16.8725608 0.00377076553 16.8725608 0.00377076553 0.428027397 16.4856531 0.428027397"></polygon>
    </defs>
    <g id="Symbols" stroke="none" stroke-width="1" fill="none" fill-rule="evenodd">
        <g id="footer" transform="translate(-1050.000000, -296.000000)">
            <g id="Page-1">
                <g transform="translate(1050.000000, 296.000000)">
                    <path d="M23.9884206,17.9222869 C24.5086327,17.9222869 24.9815092,17.4431946 24.973859,16.9225044 C24.973859,10.5824203 19.8128585,5.42141974 13.4727743,5.42141974 C12.8908828,5.41807279 12.4275689,5.94450058 12.4352191,6.45849684 C12.4619947,6.97488378 12.9563874,7.42002845 13.4727743,7.3927747 C18.7475713,7.3927747 23.0025041,11.6477075 23.0025041,16.9225044 C22.9948539,17.4431946 23.4672523,17.9222869 23.9884206,17.9222869 Z" id="Fill-3" fill="#FFFFFF"></path>
                    <g id="Group-19">
                        <path d="M23.470408,24.1449886 C23.410641,24.3357649 23.1491006,24.7024953 22.809624,25.0524909 C21.3039736,26.5638789 18.8109722,28.2607838 16.6670101,27.695627 C14.6937426,27.3542378 12.4307246,25.8270713 9.79715123,23.193976 C8.70843543,22.1047821 7.51118275,20.9075294 6.54439164,19.9407383 C3.91129638,17.307643 2.38365168,15.0451032 2.04274067,13.0718357 C1.47710572,10.9269174 3.17448872,8.4343941 4.68539865,6.92874366 C5.03587238,6.58926706 5.4021246,6.3272485 5.59290089,6.26795963 C5.7468607,6.2172772 5.87739184,6.22397111 6.05812727,6.44200115 L8.94033142,10.2106695 C9.16314282,10.640992 9.14306111,10.7657855 9.1296733,10.8064271 C9.11532922,10.848503 8.99627334,11.0158507 8.67926913,11.2998635 C7.30414983,12.531542 6.71938944,14.0190232 6.84944245,15.3807547 C6.97901732,16.734836 7.72108448,17.8881002 8.63575875,18.7788677 C9.48445025,19.6280373 10.1342372,20.2773461 10.9595,21.1026089 C11.8502675,22.0177613 13.0030535,22.7598285 14.3571348,22.8889252 C15.7188663,23.0189782 17.2063476,22.4342178 18.4385042,21.0590985 C18.7220389,20.7420943 18.8898646,20.6230384 18.9324187,20.6086944 C18.9725821,20.5953065 19.0973757,20.5752248 19.5276981,20.7975581 L23.2963665,23.6802404 C23.565079,23.9542123 23.5277844,23.9604281 23.470408,24.1449886 M20.4858828,19.0695744 C19.7299497,18.6626806 18.9678008,18.5144584 18.3074949,18.7353573 C17.647189,18.9562561 17.2704178,19.4033134 16.9644107,19.7447025 C16.0396956,20.7765201 15.2765904,20.9978971 14.5464767,20.9280892 C13.7929343,20.8420248 13.0044879,20.3911425 12.3532666,19.7083642 L10.0300035,17.3846229 C9.3472252,16.7338798 8.89682104,15.9454334 8.80980028,15.191891 C8.73999241,14.4612991 8.96136941,13.6981939 9.99318701,12.7739569 C10.3350543,12.4679499 10.7816334,12.0907005 11.0030104,11.4303946 C11.2239092,10.7705669 11.075687,10.008418 10.6692714,9.25248489 C9.53465454,7.84628675 8.49757743,6.25504995 7.47388813,5.06975067 C6.77150627,4.36784694 5.75690156,4.15268571 5.00527168,4.38745052 C4.29523963,4.60691497 3.74729571,5.09126679 3.29163205,5.53449892 C0.720694477,8.10495835 -0.357502329,10.7495289 0.103898965,13.4127467 C0.564822123,16.0764427 2.39703949,18.5813975 5.15062504,21.334983 C6.23934084,22.4236988 7.43659352,23.6214296 8.40338463,24.5877426 C11.156492,27.3413282 13.661925,29.1735455 16.3256209,29.6344687 C18.9888388,30.0953918 21.6329312,29.017195 24.2038687,26.4467356 C24.6471009,25.9905938 25.1319308,25.443128 25.3513953,24.733096 C25.5856819,23.980988 25.3709989,22.9663833 24.668617,22.2644795 C23.4828396,21.2407902 21.8916028,20.2037131 20.4858828,19.0695744" id="Fill-1" fill="#FFFFFF"></path>
                        <g id="Group-7" transform="translate(13.000000, 0.000000)">
                            <mask id="mask-2" fill="white">
                                <use xlink:href="#path-1"></use>
                            </mask>
                            <g id="Clip-6"></g>
                            <path d="M0.00387290205,1.4651045 C0.0306485212,1.98149144 0.525041203,2.42663611 1.04142814,2.39986049 C8.49365671,2.39986049 14.5143459,8.42007158 14.5143459,15.8723001 C14.5066958,16.3934684 14.978616,16.8725608 15.4997843,16.8725608 C16.0204745,16.8725608 16.4928729,16.3934684 16.4857009,15.8723001 C16.4857009,7.35430631 9.55894385,0.428027397 1.04142814,0.428027397 C0.473880645,0.432808758 -0.0042554109,0.940111114 0.00387290205,1.4651045 Z" id="Fill-5" fill="#FFFFFF" mask="url(#mask-2)"></path>
                        </g>
                    </g>
                </g>
            </g>
        </g>
    </g>
</svg>