<?xml version="1.0" encoding="UTF-8"?>
<svg width="26px" height="19px" viewBox="0 0 26 19" version="1.1" xmlns="http://www.w3.org/2000/svg" xmlns:xlink="http://www.w3.org/1999/xlink">
    <!-- Generator: Sketch 46.2 (44496) - http://www.bohemiancoding.com/sketch -->
    <title>Page 1</title>
    <desc>Created with Sketch.</desc>
    <defs>
        <polygon id="path-1" points="4.75558178e-17 1.60837714 4.75558178e-17 0.312577143 1.2333 0.312577143 1.2333 1.60837714"></polygon>
        <polygon id="path-3" points="16.35525 18.4571429 0.27625 18.4571429 0.27625 0.0572714286 16.35525 0.0572714286 16.35525 18.4571429"></polygon>
        <polygon id="path-5" points="0.07165 15.7428571 8.299 15.7428571 8.299 0.497528571 0.07165 0.497528571 0.07165 15.7428571"></polygon>
    </defs>
    <g id="Page-1" stroke="none" stroke-width="1" fill="none" fill-rule="evenodd">
        <g id="Homepage---Desktop---Design-v5" transform="translate(-625.000000, -96.000000)">
            <g id="Page-1" transform="translate(625.000000, 96.000000)">
                <path d="M1.37295,6.32542571 L3.12345,6.32542571 C3.45245,6.32542571 3.71995,6.03499714 3.71995,5.67725429 C3.71995,5.31951143 3.45245,5.02962571 3.12345,5.02962571 L1.37295,5.02962571 C1.04295,5.02962571 0.77645,5.31951143 0.77645,5.67725429 C0.77645,6.03499714 1.04295,6.32542571 1.37295,6.32542571" id="Fill-1" fill="#46A8C6"></path>
                <g id="Group-5" transform="translate(0.000000, 8.085586)">
                    <mask id="mask-2" fill="white">
                        <use xlink:href="#path-1"></use>
                    </mask>
                    <g id="Clip-4"></g>
                    <path d="M1.2333,0.960748571 C1.2333,0.603005714 0.9663,0.312577143 0.6363,0.312577143 L0.5968,0.312577143 C0.2673,0.312577143 -0.0002,0.603005714 -0.0002,0.960748571 C-0.0002,1.31849143 0.2673,1.60837714 0.5968,1.60837714 L0.6363,1.60837714 C0.9663,1.60837714 1.2333,1.31849143 1.2333,0.960748571" id="Fill-3" fill="#46A8C6" mask="url(#mask-2)"></path>
                </g>
                <g id="Group-8" transform="translate(0.500000, 0.485586)">
                    <mask id="mask-4" fill="white">
                        <use xlink:href="#path-3"></use>
                    </mask>
                    <g id="Clip-7"></g>
                    <path d="M8.45425,17.1610714 C7.52275,17.1610714 6.76475,16.3381 6.76475,15.3267571 C6.76475,14.3154143 7.52275,13.4924429 8.45425,13.4924429 C9.38625,13.4924429 10.14475,14.3159571 10.14475,15.3267571 C10.14475,16.3381 9.38625,17.1610714 8.45425,17.1610714 M13.46625,0.0572714286 L4.63875,0.0572714286 C4.30875,0.0572714286 4.04175,0.347157143 4.04175,0.705442857 L4.04175,2.29872857 L2.26875,2.29872857 C1.93925,2.29872857 1.67225,2.58861429 1.67225,2.94635714 C1.67225,3.22972857 1.84025,3.4675 2.07325,3.55598571 L8.41225,3.55598571 C8.66275,3.55598571 8.86775,3.77801429 8.86775,4.04998571 C8.86775,4.32141429 8.66275,4.54398571 8.41225,4.54398571 L8.19175,4.54398571 L4.63875,4.54398571 C4.30875,4.54398571 4.04175,4.83387143 4.04175,5.19161429 L4.04175,7.91241429 L1.84725,7.91241429 C1.51775,7.91241429 1.25025,8.20284286 1.25025,8.56058571 C1.25025,8.90204286 1.49475,9.17835714 1.80275,9.20332857 L6.46575,9.20332857 C6.71625,9.20332857 6.92125,9.4259 6.92125,9.69787143 C6.92125,9.9693 6.71625,10.1918714 6.46575,10.1918714 L4.50075,10.1918714 C4.25725,10.2559286 4.07625,10.4839286 4.05225,10.7635 L0.87275,10.7635 C0.54325,10.7635 0.27625,11.0533857 0.27625,11.4111286 C0.27625,11.7688714 0.54325,12.0593 0.87275,12.0593 L4.04175,12.0593 L4.04175,14.8419857 C4.04175,15.1997286 4.30875,15.4901571 4.63875,15.4901571 L5.57875,15.4901571 C5.65775,17.1399 6.91525,18.4574143 8.45425,18.4574143 C9.99375,18.4574143 11.25225,17.1404429 11.33075,15.4901571 L16.16525,15.4901571 L16.35525,15.4901571 L16.35525,1.81341429 C16.22925,1.54524286 16.06625,1.2787 15.84875,1.0355 C15.26625,0.386242857 14.46475,0.0572714286 13.46625,0.0572714286" id="Fill-6" fill="#46A8C6" mask="url(#mask-4)"></path>
                </g>
                <g id="Group-11" transform="translate(17.500000, 3.199871)">
                    <mask id="mask-6" fill="white">
                        <use xlink:href="#path-5"></use>
                    </mask>
                    <g id="Clip-10"></g>
                    <path d="M2.98015,14.4467857 C2.04815,14.4467857 1.29015,13.6238143 1.29015,12.6124714 C1.29015,11.6011286 2.04815,10.7781571 2.98015,10.7781571 C3.91165,10.7781571 4.66915,11.6016714 4.66915,12.6124714 C4.66915,13.6238143 3.91165,14.4467857 2.98015,14.4467857 L2.98015,14.4467857 Z M8.29915,6.75178571 C8.29915,6.56015714 8.24765,6.37232857 8.15065,6.21218571 L6.81965,4.00872857 L6.61065,3.64338571 C6.59365,3.61352857 6.57215,3.58801429 6.55065,3.56304286 L5.52315,1.86281429 C5.50815,1.83784286 5.48765,1.81884286 5.47065,1.7955 L5.25515,1.41875714 L4.90315,0.8037 C4.79415,0.6137 4.60265,0.497528571 4.39665,0.497528571 L0.07165,0.497528571 L0.07165,12.7758714 L0.10415,12.7758714 C0.18265,14.4256143 1.44165,15.7431286 2.98015,15.7431286 C4.51815,15.7431286 5.77615,14.4261571 5.85515,12.7758714 L7.70265,12.7758714 C8.03215,12.7758714 8.29915,12.4854429 8.29915,12.1277 L8.29915,7.28487143 L8.28915,7.28487143 C8.29315,7.24741429 8.29915,7.21104286 8.29915,7.17304286 L8.29915,6.75178571 Z" id="Fill-9" fill="#46A8C6" mask="url(#mask-6)"></path>
                </g>
            </g>
        </g>
    </g>
</svg>