<?xml version="1.0" encoding="UTF-8"?>
<svg width="24px" height="14px" viewBox="0 0 24 14" version="1.1" xmlns="http://www.w3.org/2000/svg" xmlns:xlink="http://www.w3.org/1999/xlink">
    <!-- Generator: Sketch 46.2 (44496) - http://www.bohemiancoding.com/sketch -->
    <title>Page 1</title>
    <desc>Created with Sketch.</desc>
    <defs></defs>
    <g id="Page-1" stroke="none" stroke-width="1" fill="none" fill-rule="evenodd">
        <g id="Homepage---Desktop---Design-v5" transform="translate(-302.000000, -99.000000)" fill="#46A8C6">
            <path d="M325.03619,100.428323 C323.970477,100.450426 322.221747,100.37675 320.117438,99.8683803 C316.799045,99.0682512 313.658698,98.5171494 311.307275,99.6178795 C308.025719,101.153302 306.076944,104.132789 306.177222,106.991445 C306.185408,107.229666 306.353732,107.404526 306.56401,107.468379 C311.455646,105.366137 314.408227,104.802755 315.77989,104.656384 C315.931331,104.640667 315.973284,104.84647 315.83003,104.894606 C308.686225,107.283696 304.166029,110.451795 302.788737,111.499478 C302.69511,111.725911 302.762133,112.001462 302.993898,112.151271 L303.484034,112.468572 C303.695335,112.605119 303.97417,112.589893 304.168075,112.430751 C304.702722,111.989673 305.810899,111.110956 306.810101,110.536768 C307.092006,110.37468 307.456793,110.432639 307.671164,110.671842 C309.842495,113.098753 313.950835,113.753494 317.61355,112.039282 C321.007663,110.451303 324.448334,103.907829 325.682371,101.368438 C325.899299,100.921957 325.549348,100.417517 325.03619,100.428323" id="Page-1"></path>
        </g>
    </g>
</svg>